{
	"info": {
		"_postman_id": "ca5505a6-ab6d-487b-9c6d-54bde01022b9",
		"name": "Cars API",
		"schema": "https://schema.getpostman.com/json/collection/v2.1.0/collection.json"
	},
	"item": [
		{
			"name": "CRUD",
			"item": [
				{
					"name": "Get all cars",
					"event": [
						{
							"listen": "test",
							"script": {
								"exec": [
									"pm.test(\"Status code is 200\", function () {\r",
									"    pm.response.to.have.status(200);\r",
									"});"
								],
								"type": "text/javascript"
							}
						}
					],
					"request": {
						"method": "GET",
						"header": [],
						"url": {
							"raw": "{{baseUrl}}/cars",
							"host": [
								"{{baseUrl}}"
							],
							"path": [
								"cars"
							]
						}
					},
					"response": []
				},
				{
					"name": "Add car",
					"event": [
						{
							"listen": "test",
							"script": {
								"exec": [
									"pm.globals.set(\"car_id\", pm.response.json().id);\r",
									"pm.globals.set(\"manufacturer\", pm.response.json().manufacturer);\r",
									"pm.globals.set(\"model\", pm.response.json().model);\r",
									""
								],
								"type": "text/javascript"
							}
						}
					],
					"request": {
						"method": "POST",
						"header": [
							{
								"key": "Content-Type",
								"name": "Content-Type",
								"value": "application/json",
								"type": "text"
							}
						],
						"body": {
							"mode": "raw",
							"raw": "{\n    \"manufacturer\": \"{{$randomCompanyName}}\",\n    \"model\": \"{{$randomCity}}\",\n    \"build\": 1999\n}",
							"options": {
								"raw": {
									"language": "json"
								}
							}
						},
						"url": {
							"raw": "{{baseUrl}}/cars",
							"host": [
								"{{baseUrl}}"
							],
							"path": [
								"cars"
							]
						}
					},
					"response": []
				},
				{
					"name": "Get single car",
					"request": {
						"method": "GET",
						"header": [],
						"url": {
							"raw": "{{baseUrl}}/cars/{{car_id}}",
							"host": [
								"{{baseUrl}}"
							],
							"path": [
								"cars",
								"{{car_id}}"
							]
						}
					},
					"response": []
				},
				{
					"name": "Delete car",
					"request": {
						"method": "DELETE",
						"header": [],
						"url": {
							"raw": "{{baseUrl}}/cars/{{car_id}}",
							"host": [
								"{{baseUrl}}"
							],
							"path": [
								"cars",
								"{{car_id}}"
							]
						}
					},
					"response": []
				}
			]
		},
		{
			"name": "Statistics",
			"item": [
				{
					"name": "Average fleet age",
					"request": {
						"method": "GET",
						"header": [],
						"url": {
							"raw": "{{baseUrl}}/statistics/age",
							"host": [
								"{{baseUrl}}"
							],
							"path": [
								"statistics",
								"age"
							]
						}
					},
					"response": []
				}
			]
		},
		{
			"name": "Health",
			"item": [
				{
					"name": "Health",
					"request": {
						"method": "GET",
						"header": [],
						"url": {
							"raw": "{{baseUrl}}/actuator/health",
							"host": [
								"{{baseUrl}}"
							],
							"path": [
								"actuator",
								"health"
							]
						}
					},
					"response": []
				},
				{
					"name": "Info",
					"request": {
						"method": "GET",
						"header": [],
						"url": {
							"raw": "{{baseUrl}}/actuator/info",
							"host": [
								"{{baseUrl}}"
							],
							"path": [
								"actuator",
								"info"
							]
						}
					},
					"response": []
				}
			]
		}
	]
}